{
  "request": {
    "url": "/json?lat=50.000000&lng=130.000000&date=today&formatted=0",
    "method": "GET"
  },
  "response": {
    "status": 200,
    "body": "{\"results\":{\"sunrise\":\"1970-01-01T21:46:34+00:00\",\"sunset\":\"1970-01-02T08:23:24+00:00\",\"solar_noon\":\"1970-01-02T03:04:59+00:00\",\"day_length\":38210,\"civil_twilight_begin\":\"1970-01-01T21:15:27+00:00\",\"civil_twilight_end\":\"1970-01-02T08:54:31+00:00\",\"nautical_twilight_begin\":\"1970-01-01T20:37:57+00:00\",\"nautical_twilight_end\":\"1970-01-02T09:32:01+00:00\",\"astronomical_twilight_begin\":\"1970-01-01T20:00:34+00:00\",\"astronomical_twilight_end\":\"1970-01-02T10:09:24+00:00\"},\"status\":\"OK\"}",
    "headers": {
      "Content-Type": "application/json"
    }
  }
}